var seekNew = {"code":0,"msg":"SUCCESS","userMsg":"请求成功","data":{"hasGift":false,"analyzer":[],"product":{"totalCount":65,"currentPage":1,"totalPage":4,"list":[{"productId":38188,"ppid":73331,"imagePath":"https://img2.ch999img.com/pic/product/440x440/20190115134414504.jpg","promotionImage":"","promotionImage2":"https://img2.ch999img.com/pic/1111/20180212.png","name":"NXE iPhone XS Max 招财猪系列 保护壳 诸事顺利 ","profile":"招财小猪,超萌个性","price":"79.00","installment":"","consultCount":0,"commentCount":8,"productStatus":{"text":"","color":"","alpha":0},"praiseRate":"100%","hasAppPrice":false,"bargain":{},"secondHand":{},"tag":["招财小猪","超萌个性"],"rank":{"has":false,"link":"","text":""},"colors":[]},{"productId":38188,"ppid":73330,"imagePath":"https://img2.ch999img.com/pic/product/440x440/20190115134352867.jpg","promotionImage":"","promotionImage2":"https://img2.ch999img.com/pic/1111/20180212.png","name":"NXE iPhone XS Max 招财猪系列 保护壳 财源滚滚 ","profile":"招财小猪,超萌个性","price":"79.00","installment":"","consultCount":0,"commentCount":8,"productStatus":{"text":"","color":"","alpha":0},"praiseRate":"100%","hasAppPrice":false,"bargain":{},"secondHand":{},"tag":["招财小猪","超萌个性"],"rank":{"has":false,"link":"","text":""},"colors":[]},{"productId":38154,"ppid":73239,"imagePath":"https://img2.ch999img.com/pic/product/440x440/20190102162339809.jpg","promotionImage":"","promotionImage2":"https://img2.ch999img.com/pic/1111/20180212.png","name":"皮皮鲁 iPhone XS Max 幸运猪系列 保护壳 红色 ","profile":"幸运猪,超萌造型","price":"109.00","installment":"","consultCount":0,"commentCount":21,"productStatus":{"text":"","color":"","alpha":0},"praiseRate":"100%","hasAppPrice":false,"bargain":{},"secondHand":{},"tag":["幸运猪造型","超萌个性"],"rank":{"has":false,"link":"","text":""},"colors":[]},{"productId":38154,"ppid":73240,"imagePath":"https://img2.ch999img.com/pic/product/440x440/20190102162439461.jpg","promotionImage":"","promotionImage2":"https://img2.ch999img.com/pic/1111/20180212.png","name":"皮皮鲁 iPhone XS Max 幸运猪系列 保护壳 青色 ","profile":"幸运猪,超萌造型","price":"109.00","installment":"","consultCount":0,"commentCount":21,"productStatus":{"text":"","color":"","alpha":0},"praiseRate":"100%","hasAppPrice":false,"bargain":{},"secondHand":{},"tag":["幸运猪造型","超萌个性"],"rank":{"has":false,"link":"","text":""},"colors":[]},{"productId":37980,"ppid":72862,"imagePath":"https://img2.ch999img.com/pic/product/440x440/2018121319015898.jpg","promotionImage":"","promotionImage2":"","name":"苹果 原装 18W USB-C 电源适配器","profile":"兼容多种机型,方便携带","price":"249.00","installment":"","consultCount":0,"commentCount":39,"productStatus":{"text":"","color":"","alpha":0},"praiseRate":"100%","hasAppPrice":false,"bargain":{},"secondHand":{},"tag":["苹果原装","高速快充","轻巧便捷"],"rank":{"has":false,"link":"","text":""},"colors":[]},{"productId":37955,"ppid":72822,"imagePath":"https://img2.ch999img.com/pic/product/440x440/20181214181947800.jpg","promotionImage":"","promotionImage2":"https://img2.ch999img.com/pic/1111/20180212.png","name":"咪咕 漫威正版 iPhone XS MAX 手机保护壳 钢铁侠 ","profile":"漫威授权,全包保护","price":"109.00","installment":"","consultCount":0,"commentCount":33,"productStatus":{"text":"","color":"","alpha":0},"praiseRate":"100%","hasAppPrice":false,"bargain":{},"secondHand":{},"tag":["漫威授权","全包保护"],"rank":{"has":false,"link":"","text":""},"colors":[]},{"productId":37955,"ppid":72821,"imagePath":"https://img2.ch999img.com/pic/product/440x440/20181214181925278.jpg","promotionImage":"","promotionImage2":"https://img2.ch999img.com/pic/1111/20180212.png","name":"咪咕 漫威正版 iPhone XS MAX 手机保护壳 复仇者联盟 ","profile":"漫威授权,全包保护","price":"109.00","installment":"","consultCount":0,"commentCount":33,"productStatus":{"text":"","color":"","alpha":0},"praiseRate":"100%","hasAppPrice":false,"bargain":{},"secondHand":{},"tag":["漫威授权","全包保护"],"rank":{"has":false,"link":"","text":""},"colors":[]},{"productId":37955,"ppid":72823,"imagePath":"https://img2.ch999img.com/pic/product/440x440/20181214182006121.jpg","promotionImage":"","promotionImage2":"https://img2.ch999img.com/pic/1111/20180212.png","name":"咪咕 漫威正版 iPhone XS MAX 手机保护壳 黑豹 ","profile":"漫威授权,全包保护","price":"109.00","installment":"","consultCount":0,"commentCount":33,"productStatus":{"text":"","color":"","alpha":0},"praiseRate":"100%","hasAppPrice":false,"bargain":{},"secondHand":{},"tag":["漫威授权","全包保护"],"rank":{"has":false,"link":"","text":""},"colors":[]},{"productId":37813,"ppid":72547,"imagePath":"https://img2.ch999img.com/pic/product/440x440/20181204154144727.jpg","promotionImage":"","promotionImage2":"https://img2.ch999img.com/pic/1111/20180212.png","name":"触宝 iPhone XS Max 凯夫拉纤维保护壳 红色 ","profile":"无惧污渍,信号“零”影响,军工级防摔","price":"239.00","installment":"","consultCount":0,"commentCount":35,"productStatus":{"text":"","color":"","alpha":0},"praiseRate":"100%","hasAppPrice":false,"bargain":{},"secondHand":{},"tag":["全包保护","亲肤手感","高强度材质"],"rank":{"has":false,"link":"","text":""},"colors":[]},{"productId":37813,"ppid":72546,"imagePath":"https://img2.ch999img.com/pic/product/440x440/20181204154132529.jpg","promotionImage":"","promotionImage2":"https://img2.ch999img.com/pic/1111/20180212.png","name":"触宝 iPhone XS Max 凯夫拉纤维保护壳 黑色 ","profile":"无惧污渍,信号“零”影响,军工级防摔","price":"239.00","installment":"","consultCount":0,"commentCount":35,"productStatus":{"text":"","color":"","alpha":0},"praiseRate":"100%","hasAppPrice":false,"bargain":{},"secondHand":{},"tag":["全包保护","亲肤手感","高强度材质"],"rank":{"has":false,"link":"","text":""},"colors":[]},{"productId":37746,"ppid":72305,"imagePath":"https://img2.ch999img.com/pic/product/440x440/20181121100544589.png","promotionImage":"","promotionImage2":"","name":"苹果 iPhone XS MAX 屏幕总成【置换】","profile":"","price":"1500.00","installment":"","consultCount":0,"commentCount":0,"productStatus":{"text":"","color":"","alpha":0},"praiseRate":"","hasAppPrice":false,"bargain":{},"secondHand":{},"tag":[],"rank":{"has":false,"link":"","text":""},"colors":[]},{"productId":37318,"ppid":71812,"imagePath":"https://img2.ch999img.com/pic/product/440x440/20181028165241897.png","promotionImage":"","promotionImage2":"","name":"iPhone XS Max 后壳总成 深空灰 ","profile":"","price":"2300.00","installment":"","consultCount":0,"commentCount":0,"productStatus":{"text":"","color":"","alpha":0},"praiseRate":"","hasAppPrice":false,"bargain":{},"secondHand":{},"tag":[],"rank":{"has":false,"link":"","text":""},"colors":[]},{"productId":37318,"ppid":71162,"imagePath":"https://img2.ch999img.com/pic/product/440x440/20181012114513398.png","promotionImage":"","promotionImage2":"","name":"iPhone XS Max 后壳总成 金色 ","profile":"","price":"2300.00","installment":"","consultCount":0,"commentCount":0,"productStatus":{"text":"","color":"","alpha":0},"praiseRate":"","hasAppPrice":false,"bargain":{},"secondHand":{},"tag":[],"rank":{"has":false,"link":"","text":""},"colors":[]},{"productId":37318,"ppid":71811,"imagePath":"https://img2.ch999img.com/pic/product/440x440/20181028165238559.png","promotionImage":"","promotionImage2":"","name":"iPhone XS Max 后壳总成 银色 ","profile":"","price":"2300.00","installment":"","consultCount":0,"commentCount":0,"productStatus":{"text":"","color":"","alpha":0},"praiseRate":"","hasAppPrice":false,"bargain":{},"secondHand":{},"tag":[],"rank":{"has":false,"link":"","text":""},"colors":[]},{"productId":37197,"ppid":71814,"imagePath":"https://img2.ch999img.com/pic/product/440x440/20181028165446558.png","promotionImage":"","promotionImage2":"","name":"iPhone XS Max 后壳 深空灰 ","profile":"","price":"599.00","installment":"","consultCount":0,"commentCount":0,"productStatus":{"text":"","color":"","alpha":0},"praiseRate":"","hasAppPrice":false,"bargain":{},"secondHand":{},"tag":[],"rank":{"has":false,"link":"","text":""},"colors":[]},{"productId":37197,"ppid":70936,"imagePath":"https://img2.ch999img.com/pic/product/440x440/20181007190224395.png","promotionImage":"","promotionImage2":"","name":"iPhone XS Max 后壳 金色 ","profile":"","price":"599.00","installment":"","consultCount":0,"commentCount":0,"productStatus":{"text":"","color":"","alpha":0},"praiseRate":"","hasAppPrice":false,"bargain":{},"secondHand":{},"tag":[],"rank":{"has":false,"link":"","text":""},"colors":[]},{"productId":37197,"ppid":71813,"imagePath":"https://img2.ch999img.com/pic/product/440x440/20181028165443789.png","promotionImage":"","promotionImage2":"","name":"iPhone XS Max 后壳 银色 ","profile":"","price":"599.00","installment":"","consultCount":0,"commentCount":0,"productStatus":{"text":"","color":"","alpha":0},"praiseRate":"","hasAppPrice":false,"bargain":{},"secondHand":{},"tag":[],"rank":{"has":false,"link":"","text":""},"colors":[]},{"productId":37193,"ppid":72303,"imagePath":"https://img2.ch999img.com/pic/product/440x440/20181007190032613.png","promotionImage":"","promotionImage2":"","name":"苹果 iPhone XS Max 屏幕总成 （置换）黑色 ","profile":"官方售后更换价","price":"1500.00","installment":"","consultCount":0,"commentCount":0,"productStatus":{"text":"","color":"","alpha":0},"praiseRate":"","hasAppPrice":false,"bargain":{},"secondHand":{},"tag":[],"rank":{"has":false,"link":"","text":""},"colors":[]},{"productId":37193,"ppid":70932,"imagePath":"https://img2.ch999img.com/pic/product/440x440/20181007190032613.png","promotionImage":"","promotionImage2":"","name":"苹果 iPhone XS Max 屏幕总成 黑色 ","profile":"官方售后更换价","price":"2628.00","installment":"","consultCount":0,"commentCount":0,"productStatus":{"text":"","color":"","alpha":0},"praiseRate":"","hasAppPrice":false,"bargain":{},"secondHand":{},"tag":[],"rank":{"has":false,"link":"","text":""},"colors":[]},{"productId":35902,"ppid":68778,"imagePath":"https://img2.ch999img.com/pic/product/440x440/20180920165743812.jpg","promotionImage":"","promotionImage2":"https://img2.ch999img.com/pic/1111/20180212.png","name":"麦麦米 苹果 iPhone XS Max PP 保护壳 透白 ","profile":"防滑防指纹,完美契合,充电无阻,科学包边","price":"59.00","installment":"","consultCount":0,"commentCount":218,"productStatus":{"text":"","color":"","alpha":0},"praiseRate":"99%","hasAppPrice":false,"bargain":{},"secondHand":{},"tag":["裸机手感","真机精准开孔","抗氧化不发黄"],"rank":{"has":false,"link":"","text":""},"colors":[]}]},"screening":[{"id":1,"name":"品牌","value":[{"id":1,"value":"","name":"苹果","imagePath":"https://img2.ch999img.com//pic/brand/20170519185532_7641.jpg"}]},{"id":2,"name":"类型","value":[{"id":3101,"value":"","name":"快充充电器","imagePath":""},{"id":4116,"value":"","name":"PD快充","imagePath":""},{"id":3096,"value":"","name":"无线充电器","imagePath":""},{"id":3999,"value":"","name":"线充套装","imagePath":""},{"id":3094,"value":"","name":"充电插头","imagePath":""}]},{"id":3,"name":"插口","value":[{"id":3259,"value":"","name":"多口","imagePath":""},{"id":1942,"value":"","name":"单口","imagePath":""},{"id":3093,"value":"","name":"无线输出","imagePath":""}]},{"id":4,"name":"适用品牌","value":[{"id":1357,"value":"","name":"苹果手机","imagePath":""},{"id":1359,"value":"","name":"华为手机","imagePath":""},{"id":1363,"value":"","name":"OPPO手机","imagePath":""},{"id":1364,"value":"","name":"vivo手机","imagePath":""},{"id":1358,"value":"","name":"三星手机","imagePath":""},{"id":1360,"value":"","name":"小米手机","imagePath":""},{"id":599,"value":"","name":"通用","imagePath":""}]}],"sort":[{"item":[{"id":0,"name":"综合","fullName":"综合排序","order":[0]},{"id":3,"name":"销量","fullName":"按销量排序","order":[0]}]},{"item":[{"id":1,"name":"价格","fullName":"价格","order":[0,1]}]},{"item":[{"id":2,"name":"新品优先","fullName":"新品优先","order":[0]}]}],"cate":[{"id":1,"path":"","parentId":0,"name":"手机通讯","count":29,"children":[{"id":2,"path":",1,","parentId":1,"name":"手机","count":1,"children":[]},{"id":4,"path":",1,","parentId":1,"name":"手机配件","count":24,"children":[{"id":43,"path":",1,4,","parentId":4,"name":"手机保护壳","count":17,"children":[{"id":217,"path":",1,4,43,","parentId":43,"name":"苹果保护壳","count":17,"children":[]}]},{"id":63,"path":",1,4,","parentId":4,"name":"手机贴膜","count":6,"children":[{"id":219,"path":",1,4,63,","parentId":63,"name":"苹果保护膜","count":6,"children":[]}]},{"id":65,"path":",1,4,","parentId":4,"name":"充电器","count":1,"children":[]}]},{"id":23,"path":",1,","parentId":1,"name":"手机维修","count":4,"children":[{"id":31,"path":",1,23,","parentId":23,"name":"屏幕总成","count":2,"children":[]},{"id":26,"path":",1,23,","parentId":23,"name":"外壳","count":2,"children":[]}]}]}],"recommend":{},"seo":{"title":"九机网(9JI.COM)-原三九手机网,专业手机零售O2O平台,正品手机、笔记本、平板电脑，正品行货，确保低价，配送及时！","description":"九机网（原39手机网、999手机网）是专业手机零售O2O网站平台，为您提供正品行货手机、笔记本及平板电脑等产品。依托九机网强大的技术支持，为您提供优质售后服务，包括刷机、手机维修及正版软件安装。九机资讯为您提供手机评测、热门机型推荐、手机使用经验分享等全方位服务!","keyword":"九机网,九机,九机网,39手机网,999手机网,39,999,九机,39网,九机网,品牌手机,正品手机,行货手机,手机维修,手机评测,手机报价"},"recommendCate":[{"id":65,"name":"充电器"},{"id":217,"name":"苹果保护壳"}]}}