var seekXiao = {"code":0,"msg":"SUCCESS","userMsg":"请求成功","data":{"hasGift":false,"analyzer":[],"product":{"totalCount":65,"currentPage":1,"totalPage":4,"list":[{"productId":35715,"ppid":68353,"imagePath":"https://img2.ch999img.com/pic/product/440x440/20180920193113507.jpg","promotionImage":"","promotionImage2":"https://img2.ch999img.com/pic/1111/20180212.png","name":"朋克 苹果 iPhone XS Max 泡泡保护壳 小猫 ","profile":"气室防撞设计,可爱个性,安全保护,轻松水洗","price":"159.00","installment":"","consultCount":0,"commentCount":11,"productStatus":{"text":"","color":"","alpha":0},"praiseRate":"100%","hasAppPrice":false,"bargain":{},"secondHand":{},"tag":["变换乐趣","环保材质","全包防摔","易清洁"],"rank":{"has":false,"link":"","text":""},"colors":[]},{"productId":35715,"ppid":68354,"imagePath":"https://img2.ch999img.com/pic/product/440x440/20180920193129964.jpg","promotionImage":"","promotionImage2":"https://img2.ch999img.com/pic/1111/20180212.png","name":"朋克 苹果 iPhone XS Max 泡泡保护壳 麋鹿 ","profile":"气室防撞设计,可爱个性,安全保护,轻松水洗","price":"159.00","installment":"","consultCount":0,"commentCount":11,"productStatus":{"text":"","color":"","alpha":0},"praiseRate":"100%","hasAppPrice":false,"bargain":{},"secondHand":{},"tag":["变换乐趣","环保材质","全包防摔","易清洁"],"rank":{"has":false,"link":"","text":""},"colors":[]},{"productId":35677,"ppid":68271,"imagePath":"https://img2.ch999img.com/pic/product/440x440/20180920205846577.jpg","promotionImage":"","promotionImage2":"https://img2.ch999img.com/pic/1111/20180212.png","name":"Switcheasy鱼骨 iPhone XS Max 复合材质保护壳 红花 ","profile":"自然元素,双层材质","price":"159.00","installment":"","consultCount":0,"commentCount":12,"productStatus":{"text":"","color":"","alpha":0},"praiseRate":"100%","hasAppPrice":false,"bargain":{},"secondHand":{},"tag":["进口材质","真花制作","全包设计"],"rank":{"has":false,"link":"","text":""},"colors":[]},{"productId":35677,"ppid":68268,"imagePath":"https://img2.ch999img.com/pic/product/440x440/20180920205835158.jpg","promotionImage":"","promotionImage2":"https://img2.ch999img.com/pic/1111/20180212.png","name":"Switcheasy鱼骨 iPhone XS Max 复合材质保护壳 桃花 ","profile":"自然元素,双层材质","price":"159.00","installment":"","consultCount":0,"commentCount":12,"productStatus":{"text":"","color":"","alpha":0},"praiseRate":"100%","hasAppPrice":false,"bargain":{},"secondHand":{},"tag":["进口材质","真花制作","全包设计"],"rank":{"has":false,"link":"","text":""},"colors":[]},{"productId":35572,"ppid":68010,"imagePath":"https://img2.ch999img.com/pic/product/440x440/20180910134115499.jpg","promotionImage":"","promotionImage2":"https://img2.ch999img.com/pic/1111/20180212.png","name":"爱贝尔 苹果iPhone XS Max PC 手机壳","profile":"轻薄透明,裸机手感,强韧防刮","price":"49.00","installment":"","consultCount":0,"commentCount":26,"productStatus":{"text":"","color":"","alpha":0},"praiseRate":"100%","hasAppPrice":false,"bargain":{},"secondHand":{},"tag":["精准开孔","全包保护","久用不易发黄"],"rank":{"has":false,"link":"","text":""},"colors":[]},{"productId":35695,"ppid":68316,"imagePath":"https://img2.ch999img.com/pic/product/440x440/20180918171610698.jpg","promotionImage":"","promotionImage2":"https://img2.ch999img.com/pic/1111/20180212.png","name":"vokamo iPhone XS Max 复合材质 保护壳","profile":"防滑边框,运动潮流,蜂窝减震","price":"199.00","installment":"","consultCount":0,"commentCount":39,"productStatus":{"text":"","color":"","alpha":0},"praiseRate":"100%","hasAppPrice":false,"bargain":{},"secondHand":{},"tag":["可更换配色块","3.5m防摔","全包保护"],"rank":{"has":false,"link":"","text":""},"colors":[]},{"productId":35598,"ppid":68107,"imagePath":"https://img2.ch999img.com/pic/product/440x440/20180921171541650.jpg","promotionImage":"","promotionImage2":"","name":"耐尔金 iPhone XS Max 无线充电精装礼盒三件套套装 黑色 ","profile":"奇幻精装礼盒套装，快速无线充电器+一拖三充电线+炫彩玻璃保护壳","price":"169.00","installment":"","consultCount":0,"commentCount":88,"productStatus":{"text":"","color":"","alpha":0},"praiseRate":"97%","hasAppPrice":false,"bargain":{},"secondHand":{},"tag":["iPhone 6.5","无线充电","精装礼盒","三件套套装"],"rank":{"has":false,"link":"","text":""},"colors":[]},{"productId":35598,"ppid":68106,"imagePath":"https://img2.ch999img.com/pic/product/440x440/20180921171619628.jpg","promotionImage":"","promotionImage2":"","name":"耐尔金 iPhone XS Max 无线充电精装礼盒三件套套装 蓝色 ","profile":"奇幻精装礼盒套装，快速无线充电器+一拖三充电线+炫彩玻璃保护壳","price":"169.00","installment":"","consultCount":0,"commentCount":88,"productStatus":{"text":"","color":"","alpha":0},"praiseRate":"97%","hasAppPrice":false,"bargain":{},"secondHand":{},"tag":["iPhone 6.5","无线充电","精装礼盒","三件套套装"],"rank":{"has":false,"link":"","text":""},"colors":[]},{"productId":37813,"ppid":72546,"imagePath":"https://img2.ch999img.com/pic/product/440x440/20181204154132529.jpg","promotionImage":"","promotionImage2":"https://img2.ch999img.com/pic/1111/20180212.png","name":"触宝 iPhone XS Max 凯夫拉纤维保护壳 黑色 ","profile":"无惧污渍,信号“零”影响,军工级防摔","price":"239.00","installment":"","consultCount":0,"commentCount":35,"productStatus":{"text":"","color":"","alpha":0},"praiseRate":"100%","hasAppPrice":false,"bargain":{},"secondHand":{},"tag":["全包保护","亲肤手感","高强度材质"],"rank":{"has":false,"link":"","text":""},"colors":[]},{"productId":37813,"ppid":72547,"imagePath":"https://img2.ch999img.com/pic/product/440x440/20181204154144727.jpg","promotionImage":"","promotionImage2":"https://img2.ch999img.com/pic/1111/20180212.png","name":"触宝 iPhone XS Max 凯夫拉纤维保护壳 红色 ","profile":"无惧污渍,信号“零”影响,军工级防摔","price":"239.00","installment":"","consultCount":0,"commentCount":35,"productStatus":{"text":"","color":"","alpha":0},"praiseRate":"100%","hasAppPrice":false,"bargain":{},"secondHand":{},"tag":["全包保护","亲肤手感","高强度材质"],"rank":{"has":false,"link":"","text":""},"colors":[]},{"productId":38188,"ppid":73331,"imagePath":"https://img2.ch999img.com/pic/product/440x440/20190115134414504.jpg","promotionImage":"","promotionImage2":"https://img2.ch999img.com/pic/1111/20180212.png","name":"NXE iPhone XS Max 招财猪系列 保护壳 诸事顺利 ","profile":"招财小猪,超萌个性","price":"79.00","installment":"","consultCount":0,"commentCount":8,"productStatus":{"text":"","color":"","alpha":0},"praiseRate":"100%","hasAppPrice":false,"bargain":{},"secondHand":{},"tag":["招财小猪","超萌个性"],"rank":{"has":false,"link":"","text":""},"colors":[]},{"productId":38188,"ppid":73330,"imagePath":"https://img2.ch999img.com/pic/product/440x440/20190115134352867.jpg","promotionImage":"","promotionImage2":"https://img2.ch999img.com/pic/1111/20180212.png","name":"NXE iPhone XS Max 招财猪系列 保护壳 财源滚滚 ","profile":"招财小猪,超萌个性","price":"79.00","installment":"","consultCount":0,"commentCount":8,"productStatus":{"text":"","color":"","alpha":0},"praiseRate":"100%","hasAppPrice":false,"bargain":{},"secondHand":{},"tag":["招财小猪","超萌个性"],"rank":{"has":false,"link":"","text":""},"colors":[]},{"productId":37955,"ppid":72821,"imagePath":"https://img2.ch999img.com/pic/product/440x440/20181214181925278.jpg","promotionImage":"","promotionImage2":"https://img2.ch999img.com/pic/1111/20180212.png","name":"咪咕 漫威正版 iPhone XS MAX 手机保护壳 复仇者联盟 ","profile":"漫威授权,全包保护","price":"109.00","installment":"","consultCount":0,"commentCount":33,"productStatus":{"text":"","color":"","alpha":0},"praiseRate":"100%","hasAppPrice":false,"bargain":{},"secondHand":{},"tag":["漫威授权","全包保护"],"rank":{"has":false,"link":"","text":""},"colors":[]},{"productId":37955,"ppid":72822,"imagePath":"https://img2.ch999img.com/pic/product/440x440/20181214181947800.jpg","promotionImage":"","promotionImage2":"https://img2.ch999img.com/pic/1111/20180212.png","name":"咪咕 漫威正版 iPhone XS MAX 手机保护壳 钢铁侠 ","profile":"漫威授权,全包保护","price":"109.00","installment":"","consultCount":0,"commentCount":33,"productStatus":{"text":"","color":"","alpha":0},"praiseRate":"100%","hasAppPrice":false,"bargain":{},"secondHand":{},"tag":["漫威授权","全包保护"],"rank":{"has":false,"link":"","text":""},"colors":[]},{"productId":37955,"ppid":72823,"imagePath":"https://img2.ch999img.com/pic/product/440x440/20181214182006121.jpg","promotionImage":"","promotionImage2":"https://img2.ch999img.com/pic/1111/20180212.png","name":"咪咕 漫威正版 iPhone XS MAX 手机保护壳 黑豹 ","profile":"漫威授权,全包保护","price":"109.00","installment":"","consultCount":0,"commentCount":33,"productStatus":{"text":"","color":"","alpha":0},"praiseRate":"100%","hasAppPrice":false,"bargain":{},"secondHand":{},"tag":["漫威授权","全包保护"],"rank":{"has":false,"link":"","text":""},"colors":[]},{"productId":38154,"ppid":73240,"imagePath":"https://img2.ch999img.com/pic/product/440x440/20190102162439461.jpg","promotionImage":"","promotionImage2":"https://img2.ch999img.com/pic/1111/20180212.png","name":"皮皮鲁 iPhone XS Max 幸运猪系列 保护壳 青色 ","profile":"幸运猪,超萌造型","price":"109.00","installment":"","consultCount":0,"commentCount":21,"productStatus":{"text":"","color":"","alpha":0},"praiseRate":"100%","hasAppPrice":false,"bargain":{},"secondHand":{},"tag":["幸运猪造型","超萌个性"],"rank":{"has":false,"link":"","text":""},"colors":[]},{"productId":38154,"ppid":73239,"imagePath":"https://img2.ch999img.com/pic/product/440x440/20190102162339809.jpg","promotionImage":"","promotionImage2":"https://img2.ch999img.com/pic/1111/20180212.png","name":"皮皮鲁 iPhone XS Max 幸运猪系列 保护壳 红色 ","profile":"幸运猪,超萌造型","price":"109.00","installment":"","consultCount":0,"commentCount":21,"productStatus":{"text":"","color":"","alpha":0},"praiseRate":"100%","hasAppPrice":false,"bargain":{},"secondHand":{},"tag":["幸运猪造型","超萌个性"],"rank":{"has":false,"link":"","text":""},"colors":[]},{"productId":35674,"ppid":68263,"imagePath":"https://img2.ch999img.com/pic/product/440x440/20181022190123693.jpg","promotionImage":"","promotionImage2":"https://img2.ch999img.com/pic/1111/20180212.png","name":"NXE iPhone XS Max 玻璃 保护壳 黄色 ","profile":"彩虹设计，彰显个性","price":"79.00","installment":"","consultCount":0,"commentCount":72,"productStatus":{"text":"","color":"","alpha":0},"praiseRate":"98%","hasAppPrice":false,"bargain":{},"secondHand":{},"tag":["玻璃软壳","彩虹系列","玻璃保护"],"rank":{"has":false,"link":"","text":""},"colors":[]},{"productId":35674,"ppid":68264,"imagePath":"https://img2.ch999img.com/pic/product/440x440/20181022190102171.jpg","promotionImage":"","promotionImage2":"https://img2.ch999img.com/pic/1111/20180212.png","name":"NXE iPhone XS Max 玻璃 保护壳 蓝色 ","profile":"彩虹设计，彰显个性","price":"79.00","installment":"","consultCount":0,"commentCount":72,"productStatus":{"text":"","color":"","alpha":0},"praiseRate":"98%","hasAppPrice":false,"bargain":{},"secondHand":{},"tag":["玻璃软壳","彩虹系列","玻璃保护"],"rank":{"has":false,"link":"","text":""},"colors":[]},{"productId":35655,"ppid":68230,"imagePath":"https://img2.ch999img.com/pic/product/440x440/20180917144839120.jpg","promotionImage":"","promotionImage2":"","name":"触宝 iPhone XS Max 防蓝光 半屏钢化膜","profile":"2.5D弧面设计,边缘顺滑不刮手,享受30天破损换新服务","price":"69.00","installment":"","consultCount":0,"commentCount":77,"productStatus":{"text":"","color":"","alpha":0},"praiseRate":"98%","hasAppPrice":false,"bargain":{},"secondHand":{},"tag":["防蓝光护眼","防刮防爆防指纹"],"rank":{"has":false,"link":"","text":""},"colors":[]}]},"screening":[{"id":1,"name":"品牌","value":[{"id":1,"value":"","name":"苹果","imagePath":"https://img2.ch999img.com//pic/brand/20170519185532_7641.jpg"},{"id":1440,"value":"","name":"麦麦米","imagePath":"https://img2.ch999img.com//pic/brand/20170626102032_3336.jpg"},{"id":1119,"value":"","name":"爱贝尔","imagePath":"https://img2.ch999img.com//pic/brand/20170623180556_0506.jpg"},{"id":1107,"value":"","name":"迪沃","imagePath":"https://img2.ch999img.com//pic/brand/20170626105507_6864.jpg"},{"id":19,"value":"","name":"摩仕","imagePath":"https://img2.ch999img.com//pic/brand/20180319154613_7253.jpg"},{"id":25,"value":"","name":"洛克","imagePath":"https://img2.ch999img.com//pic/brand/20170626103233_2218.jpg"},{"id":77,"value":"","name":"其他","imagePath":"https://img2.ch999img.com//pic/brand/20170623151406_3363.jpg"}]},{"id":2,"name":"适用机型","value":[{"id":3735,"value":"","name":"iPhone XS Max","imagePath":""},{"id":3734,"value":"","name":"iPhone XS","imagePath":""},{"id":3239,"value":"","name":"iPhone X","imagePath":""},{"id":3756,"value":"","name":"iPhone XR","imagePath":""},{"id":3209,"value":"","name":"iPhone 8/7 Plus","imagePath":""},{"id":3208,"value":"","name":"iPhone 8/7","imagePath":""},{"id":2549,"value":"","name":"iPhone 7 Plus","imagePath":""},{"id":2548,"value":"","name":"iPhone 7","imagePath":""},{"id":1625,"value":"","name":"iPhone 6P/6SP","imagePath":""},{"id":1624,"value":"","name":"iPhone 6/6s","imagePath":""},{"id":4023,"value":"","name":"AirPods","imagePath":""}]},{"id":3,"name":"材质","value":[{"id":1628,"value":"","name":"硅胶","imagePath":""},{"id":1632,"value":"","name":"TPU软胶","imagePath":""},{"id":1629,"value":"","name":"PC热塑","imagePath":""},{"id":1630,"value":"","name":"皮革","imagePath":""},{"id":1631,"value":"","name":"复合材质","imagePath":""},{"id":2037,"value":"","name":"金属","imagePath":""},{"id":3310,"value":"","name":"玻璃","imagePath":""},{"id":1633,"value":"","name":"其他","imagePath":""}]},{"id":4,"name":"类型","value":[{"id":1648,"value":"","name":"硬壳","imagePath":""},{"id":1647,"value":"","name":"软壳","imagePath":""},{"id":3308,"value":"","name":"超薄","imagePath":""},{"id":3081,"value":"","name":"防摔壳","imagePath":""},{"id":4091,"value":"","name":"透明壳","imagePath":""},{"id":3181,"value":"","name":"其他","imagePath":""}]},{"id":5,"name":"主题风格","value":[{"id":1770,"value":"","name":"简约","imagePath":""},{"id":3479,"value":"","name":"卡通动漫","imagePath":""},{"id":3480,"value":"","name":"轻奢","imagePath":""},{"id":3481,"value":"","name":"商务","imagePath":""},{"id":3482,"value":"","name":"时尚","imagePath":""}]},{"id":6,"name":"适用人群","value":[{"id":3476,"value":"","name":"男士","imagePath":""},{"id":3477,"value":"","name":"女士","imagePath":""},{"id":3478,"value":"","name":"通用","imagePath":""}]}],"sort":[{"item":[{"id":0,"name":"综合","fullName":"综合排序","order":[0]},{"id":3,"name":"销量","fullName":"按销量排序","order":[0]}]},{"item":[{"id":1,"name":"价格","fullName":"价格","order":[0,1]}]},{"item":[{"id":2,"name":"新品优先","fullName":"新品优先","order":[0]}]}],"cate":[{"id":1,"path":"","parentId":0,"name":"手机通讯","count":29,"children":[{"id":2,"path":",1,","parentId":1,"name":"手机","count":1,"children":[]},{"id":4,"path":",1,","parentId":1,"name":"手机配件","count":24,"children":[{"id":43,"path":",1,4,","parentId":4,"name":"手机保护壳","count":17,"children":[{"id":217,"path":",1,4,43,","parentId":43,"name":"苹果保护壳","count":17,"children":[]}]},{"id":63,"path":",1,4,","parentId":4,"name":"手机贴膜","count":6,"children":[{"id":219,"path":",1,4,63,","parentId":63,"name":"苹果保护膜","count":6,"children":[]}]},{"id":65,"path":",1,4,","parentId":4,"name":"充电器","count":1,"children":[]}]},{"id":23,"path":",1,","parentId":1,"name":"手机维修","count":4,"children":[{"id":31,"path":",1,23,","parentId":23,"name":"屏幕总成","count":2,"children":[]},{"id":26,"path":",1,23,","parentId":23,"name":"外壳","count":2,"children":[]}]}]}],"recommend":{},"seo":{"title":"九机网(9JI.COM)-原三九手机网,专业手机零售O2O平台,正品手机、笔记本、平板电脑，正品行货，确保低价，配送及时！","description":"九机网（原39手机网、999手机网）是专业手机零售O2O网站平台，为您提供正品行货手机、笔记本及平板电脑等产品。依托九机网强大的技术支持，为您提供优质售后服务，包括刷机、手机维修及正版软件安装。九机资讯为您提供手机评测、热门机型推荐、手机使用经验分享等全方位服务!","keyword":"九机网,九机,九机网,39手机网,999手机网,39,999,九机,39网,九机网,品牌手机,正品手机,行货手机,手机维修,手机评测,手机报价"},"recommendCate":[{"id":217,"name":"苹果保护壳"},{"id":219,"name":"苹果保护膜"}]}}